ra
ra
ra
pb
pb
ra
ra
ra
ra
ra
pb
ra
pb
ra
pb
pb
ra
pb
pb
pb
pb
pb
ra
ra
pb
pb
ra
ra
ra
pb
pb
ra
pb
ra
ra
pb
pb
ra
pb
ra
ra
pb
sa
pa
rb
pa
rrb
sb
pa
pa
pa
pa
____beb____
 14
 7
 13
 17
 18
 9
 16
 8
 4
 2
 1
 28
 31
 26
____gag____
 57
 56
 52
 49
 43
 36
 32
 34
___________
sa
34 32
pb
pb
pa
pa
pa
pa
pa
rb
rb
rb
rb
pa
rb
pa
pa
____beb____
 9
 8
 4
 2
 1
 14
 7
 13
____gag____
 57
 56
 52
 49
 43
 36
 34
 32
 26
 31
 28
 16
 18
 17
___________
pb
ra
pb
rra
____beb____
 57
 56
 52
 49
 43
 36
 34
 32
 26
 31
 28
 18
____gag____
 9
 8
 4
 2
 1
 14
 7
 13
 17
 16
___________
sb
pa
pa
pa
rb
pa
____beb____
 7
 9
 8
 4
 2
 1
____gag____
 57
 56
 52
 49
 43
 36
 34
 32
 26
 31
 28
 18
 17
 16
 13
 14
___________
sa
14 13
pb
pb
pa
pa
pa
pb
13 14
pb
pb
pa
pa
____beb____
 7
 9
 8
 4
 2
 1
____gag____
 57
 56
 52
 49
 43
 36
 34
 32
 26
 31
 28
 18
 17
 16
 14
 13
___________
pb
14 16
pb
pb
pa
pa
pa
---Stack A--
 57
 56
 52
 49
 43
 36
 34
 32
 26
 31
 28
 18
 17
 16
 14
 13
---Stack B--
 7
 9
 8
 4
 2
 1
---Chunks---
